954411 753532 525
766594 20766 509
52912 546551 470
115885 752547 509
979040 223518 525
248157 247580 319
814017 883462 525
613069 61761 470
375063 604655 470
818538 606825 509
970041 962345 414
774366 182298 509
81591 174419 383
312698 301384 384
215280 428181 449
684958 594465 509
671876 774473 504
821428 174290 509
5508 701950 509
780535 186376 509
25912 205163 383
872479 59739 525
825157 786583 468
136848 254673 443
266151 621641 470
242345 862291 525
459434 399741 449
550290 158468 470
557068 941670 525
58470 117320 354
336518 70291 443
690838 62373 509
814668 764364 468
42333 1034 324
634260 42440 509
606092 99747 470
442873 977651 525
768380 141264 509
37734 43752 306
795537 297380 509
665926 832453 504
556034 560735 359
850756 45849 525
346785 764646 509
354791 745273 509
365771 488572 449
882931 450479 525
288366 10555 443
867410 355834 525
850984 758102 525
708577 82407 509
371436 802715 509
184409 432160 449
184721 525859 470
602877 845412 525
715146 500430 509
510052 635374 509
360853 680783 509
142690 907045 525
336756 203978 443
872434 746397 525
810039 754800 468
651395 903653 525
844648 305013 525
748128 588717 509
493768 48391 449
144754 919344 525
642809 10988 509
235382 821480 509
939491 881775 476
803232 412903 509
38429 388959 443
327355 832471 509
560595 172914 470
762747 149958 509
716783 254205 509
413362 923135 525
786438 759412 468
719723 3064 509
223437 62330 386
56163 567068 470
612788 964835 525
76960 340529 443
440225 139127 449
151076 814751 509
116928 763270 509
503753 347378 449
87429 476532 449
577681 908659 525
626241 856136 525
852848 478893 525
824076 794464 468
227527 200280 386
333485 906520 525
751397 145483 509
564166 370753 470
106584 500653 449
574110 402986 470
678109 521757 509
670705 354931 509
446697 436695 400
625372 776445 509
317647 701006 509
833489 922374 525
692747 67242 509
288977 103534 443
823618 15521 509
598735 876871 525
407047 943996 525
649804 210918 509
731652 322602 509
860111 988712 507
955100 734224 525
957112 105938 525
859655 924846 476
215282 971377 525
645466 160833 509
818463 638825 504
552586 285767 470
202185 550271 470
442093 410387 418
182461 396079 443
416683 399518 449
27676 591021 470
353841 644910 509
195782 433277 449
59091 707708 509
916612 993001 507
942979 30830 525
427980 407357 449
459647 942313 525
899948 193833 525
525471 351213 470
691075 508611 509
504394 284275 449
163810 695163 509
943535 289707 525
754914 631594 504
540978 604741 452
791470 209533 509
594989 869510 525
951764 443045 525
176022 241517 443
79618 166599 383
291919 274940 389
986080 198189 525
353372 435007 449
687641 786309 504
531430 416731 470
321759 716671 509
189576 362341 443
585623 667500 509
616575 764204 509
407717 971835 525
720726 870875 525
732594 203405 509
994300 726470 525
604865 40037 470
554160 389290 470
716435 834231 468
817308 614025 509
976726 33521 525
179009 190245 365
29053 709493 509
466676 607109 470
496648 989144 525
849946 325098 525
524861 849615 525
978990 562443 525
877417 422136 525
36935 535434 470
617988 922359 525
861099 926521 476
625770 736652 509
881586 304984 525
737982 633108 504
838895 729561 525
500671 92413 449
345295 717632 509
185307 109920 383
103971 344054 443
928263 42434 525
96018 419001 449
104008 632125 509
861491 426351 525
593790 430491 470
813369 315257 509
574942 72309 470
19641 517120 470
415722 87376 449
251813 579282 470
957452 792070 525
717380 935487 525
167364 809237 509
758626 569123 509
899361 645789 525
933213 730984 525
784988 67399 509
85671 308906 443
432991 527749 470
484739 246928 449
636016 98394 509
959953 570002 525
365191 354063 410
107396 486469 449
239522 314404 407
215938 711287 509
565338 736763 509
458593 720931 509
664834 721451 504
984562 654690 525
435949 240530 449
990036 798802 525
239738 580504 470
133075 1706 354
296150 259631 407
502913 208978 449
489776 774248 509
500913 393594 449
63185 798711 509
159409 351858 443
463776 756844 509
619971 968040 525
399644 498135 449
701443 750648 504
453128 951594 525
559839 510670 470
105088 82283 341
763350 811077 468
548629 378952 470
441313 928529 525
629592 26136 509
348026 372029 410
610122 849039 525
226750 475085 449
567019 61471 470
41293 501071 449
140724 109211 349
289820 238316 407
278339 635853 509
432814 158347 449
908188 436666 525
507647 681564 509
72297 639425 509
719908 823954 468
3855 655572 509
726956 634873 504
541658 67568 470
208610 631006 509
255233 726261 509
